<?xml version="1.0" encoding="utf-8"?>
<!-- Generator: Adobe Illustrator 22.0.1, SVG Export Plug-In . SVG Version: 6.00 Build 0)  -->
<svg version="1.1" id="Layer_1" xmlns="http://www.w3.org/2000/svg" xmlns:xlink="http://www.w3.org/1999/xlink" x="0px" y="0px"
	 width="612.3px" height="529.9px" viewBox="0 0 612.3 529.9" style="enable-background:new 0 0 612.3 529.9;" xml:space="preserve"
	>
<style type="text/css">
	.st0{fill:#383839;}
	.st1{fill:#F2BE1A;}
	.st2{fill:#FFFFFF;}
</style>
<g>
	<rect x="1.9" y="55" class="st0" width="608.5" height="439.1"/>
	<rect x="3" y="35.9" class="st1" width="607.4" height="19.1"/>
	<path class="st2" d="M53.4,91.6v-2.5H66v2.5h-4.9V106h-2.8V91.6H53.4z"/>
	<path class="st2" d="M76.5,106v-6.8c0-1.9-1.1-2.9-2.7-2.9c-1.7,0-3,1.2-3,3.1v6.6h-2.6V88.4h2.6v7.5c1-1.3,2.2-1.7,3.7-1.7
		c3.2,0,4.6,2,4.6,5v6.8H76.5z"/>
	<path class="st2" d="M92.9,100.9h-8.6c0,2.1,1.7,3.1,3.8,3.1c1.5,0,2.9-0.1,4.2-0.7l0.3,2c-1.4,0.6-2.9,1-4.4,1
		c-3.8,0.1-6.7-2.3-6.5-6.3c0.1-3.9,2.9-5.8,6-5.8C91.8,94.2,93.6,97,92.9,100.9z M84.3,99.1h6.5c0-2-1.4-2.9-3-2.9
		C86,96.2,84.6,97.2,84.3,99.1z"/>
	<path class="st2" d="M101.7,88.4h2.6V95c1.1-0.6,2.3-0.8,3.4-0.8c3,0,5.6,2.4,5.6,6.2c0,4.5-3.2,5.9-6.6,5.9
		c-1.6,0-3.4-0.3-4.9-0.9L101.7,88.4L101.7,88.4z M104.3,103.7c0.8,0.2,1.8,0.4,2.6,0.4c2.1,0,3.7-0.9,3.7-3.8
		c0-2.4-1.5-3.7-3.3-3.8c-0.9,0-2,0.1-3,0.7C104.3,97.2,104.3,103.7,104.3,103.7z"/>
	<path class="st2" d="M126.6,94.4v8.3c0,1.4,0.1,1.8,1.2,1.7v1.7c-1.5,0.3-3.6,0.6-3.6-1.9c-0.8,1.6-2.4,2.1-4,2.1
		c-3.2,0-4.3-2.2-4.3-5.1v-6.7h2.7v6.7c0,1.9,1,3,2.5,3c1.7,0,2.9-1.2,2.9-3.1v-6.7C124,94.4,126.6,94.4,126.6,94.4z"/>
	<path class="st2" d="M136.6,94.2c1,0,1.9,0.3,2.7,0.8l-0.6,2.3c-0.7-0.5-1.5-0.7-2.3-0.7c-1.6,0-3,0.9-3,2.8v6.6h-2.6v-8.4
		c0-1,0-1.6-1.3-1.5v-1.8c1.7-0.4,3.6-0.1,3.7,1.8C133.7,94.8,135.2,94.2,136.6,94.2z"/>
	<path class="st2" d="M149.4,103.9c-0.8,1.7-2.1,2.4-3.9,2.4c-3.5,0.1-5.4-2.8-5.4-6.1c0-3.6,2.5-6,5.5-6c1,0,2.2,0.3,3.2,0.9v-6.8
		h2.6v14.1c0,1.3-0.1,1.8,1.2,1.8v1.8c-1.8,0.3-3.4,0.1-3.4-1.8v-0.3H149.4z M149,97.4c-0.9-0.7-2-0.9-2.9-0.9
		c-1.8,0-3.3,1.3-3.3,3.7c0,2,1,3.7,3.2,3.7c1.8,0,3-1.5,3-3.2V97.4z"/>
	<path class="st2" d="M165.8,100.9h-8.6c0,2.1,1.7,3.1,3.8,3.1c1.5,0,2.9-0.1,4.2-0.7l0.3,2c-1.4,0.6-2.9,1-4.4,1
		c-3.8,0.1-6.7-2.3-6.5-6.3c0.1-3.9,2.9-5.8,6-5.8C164.8,94.2,166.6,97,165.8,100.9z M157.2,99.1h6.5c0-2-1.4-2.9-3-2.9
		C158.9,96.2,157.6,97.2,157.2,99.1z"/>
	<path class="st2" d="M177.4,106v-6.8c0-1.8-1.2-2.9-2.7-2.9c-1.6,0-2.9,1.3-2.9,3.1v6.6h-2.7v-8.3c0-1.4,0-1.7-1.2-1.6v-1.8
		c1.7-0.3,3.6-0.4,3.6,1.8c0.6-1.5,2.4-2,4-2c3.2,0,4.6,2.1,4.6,5v6.9H177.4z"/>
	<path class="st2" d="M194.8,106.2c-3.1,0-6.1-2-6.1-6.1c0-4,3-6,6-6c3.2,0,6.3,1.9,6.3,6S197.9,106.2,194.8,106.2z M194.8,103.9
		c1.7,0,3.5-1.3,3.5-3.8s-1.8-3.7-3.6-3.7c-1.7,0-3.4,1.2-3.4,3.7C191.3,102.7,193.1,103.9,194.8,103.9z"/>
	<path class="st2" d="M204.5,96.4h-2.1v-2h2.2v-1.6c0-4.6,3.5-5.3,7.2-4.1l-0.3,1.8c-2.1-0.8-4.3-0.6-4.3,2.3v1.5h3.9v2h-3.9v9.7
		h-2.6L204.5,96.4L204.5,96.4z"/>
	<path class="st2" d="M239.5,106V94.7h-8.7V106h-7.4V77.8h7.4V88h8.7V77.8h7.4V106H239.5z"/>
	<path class="st2" d="M268.6,84.2h-10.2v4h9.4v6.4h-9.4v4.6H269v6.8h-18V77.8h17.6V84.2z"/>
	<path class="st2" d="M272.1,106V77.8c4.2,0,8.3,0,12.4,0c6.8,0,10.2,5.3,10.1,10.6c0,5.2-3.4,10.3-10.1,10.3h-5.1v7.3H272.1z
		 M284.5,92.3c1.9,0,3.1-2.1,3.1-4.1s-1-4-3.1-4h-5.2v8.1C279.3,92.3,284.5,92.3,284.5,92.3z"/>
	<path class="st2" d="M322.1,91.2c2.3,1.2,3.5,3.5,3.5,6c0,4.8-3.1,8.6-8.9,8.6h-13.6V77.7h12.4c5.2,0,8.9,3.4,8.9,8.7
		C324.5,88.1,323.5,90.1,322.1,91.2z M310.5,84.1v4.7h4.5c1.4,0,2.1-1.1,2.2-2.2c0-1.2-0.7-2.5-2.2-2.5H310.5z M310.5,94.8v4.7h5.7
		c1.4,0,2.1-1,2.2-2.2c0-0.8-0.3-1.7-1-2.2c-0.4-0.2-0.7-0.3-1.2-0.3H310.5z"/>
	<path class="st2" d="M344.3,103.9c-0.8,1.7-2.2,2.4-3.9,2.4c-3.5,0.1-5.4-2.8-5.4-6.1c0-3.6,2.5-6,5.5-6c1,0,2.2,0.3,3.2,0.9v-6.8
		h2.6v14.1c0,1.3-0.1,1.8,1.2,1.8v1.8c-1.8,0.3-3.4,0.1-3.4-1.8v-0.3H344.3z M343.9,97.4c-0.9-0.7-2-0.9-2.9-0.9
		c-1.8,0-3.3,1.3-3.3,3.7c0,2,1,3.7,3.2,3.7c1.8,0,3-1.5,3-3.2L343.9,97.4L343.9,97.4z"/>
	<path class="st2" d="M351.7,89.2c0.8,0,1.6,0.5,1.6,1.5s-0.8,1.5-1.5,1.6c-0.8,0-1.6-0.5-1.6-1.6C350.1,89.7,350.9,89.2,351.7,89.2
		z M353,106h-2.6V94.4h2.6V106z"/>
	<path class="st2" d="M358.2,102.6c0.1,1.2,1.4,1.8,2.7,1.8c1.3,0,2.7-0.4,2.8-1.8c0-1.1-1.1-1.4-2.6-1.6c-2.4-0.3-5.1-0.6-5.1-3.2
		c0-2.5,2.4-3.6,5-3.6c2.7,0,5,1.2,4.9,3.5h-2.3c0-1.2-1.4-1.5-2.6-1.5s-2.5,0.6-2.4,1.6c0,1,1,1.2,2.8,1.4c2.4,0.3,4.8,0.7,4.8,3.5
		c0,2.6-2.5,3.7-5.1,3.7s-5.1-0.8-5.3-3.7L358.2,102.6L358.2,102.6z"/>
	<path class="st2" d="M379.2,100.9h-8.6c0,2.1,1.7,3.1,3.8,3.1c1.5,0,2.9-0.1,4.2-0.7l0.3,2c-1.4,0.6-2.9,1-4.4,1
		c-3.8,0.1-6.7-2.3-6.5-6.3c0.1-3.9,2.9-5.8,6-5.8C378.1,94.2,380,97,379.2,100.9z M370.6,99.1h6.5c0-2-1.4-2.9-3-2.9
		C372.3,96.2,371,97.2,370.6,99.1z"/>
	<path class="st2" d="M385.3,106.2c-2.8,0-4.2-1.7-4.2-3.5c0-2.2,1.5-3.9,4.5-3.9c1.1,0,2.4,0.2,3.5,0.8v-1.4c0-2.9-5.2-2-6.7-1.3
		L382,95c1.2-0.6,2.8-0.8,4.3-0.8c2.8,0,5.3,0.9,5.3,4.1v4.6c0,1.1,0,1.7,1.2,1.6v1.6c-1.8,0.4-3.3,0.3-3.3-2
		C388.8,105.6,387,106.2,385.3,106.2z M386,100.7c-1.3,0-2.3,0.7-2.3,2c0,1,0.7,1.6,2.1,1.6s3-0.7,3.3-2.9
		C388.6,101,387.2,100.7,386,100.7z"/>
	<path class="st2" d="M397.1,102.6c0.1,1.2,1.4,1.8,2.7,1.8c1.3,0,2.7-0.4,2.8-1.8c0-1.1-1.1-1.4-2.6-1.6c-2.4-0.3-5.1-0.6-5.1-3.2
		c0-2.5,2.4-3.6,5-3.6c2.7,0,5,1.2,5,3.5h-2.3c0-1.2-1.4-1.5-2.6-1.5s-2.5,0.6-2.4,1.6c0,1,1,1.2,2.8,1.4c2.4,0.3,4.8,0.7,4.8,3.5
		c0,2.6-2.5,3.7-5.1,3.7s-5.1-0.8-5.3-3.7L397.1,102.6L397.1,102.6z"/>
	<path class="st2" d="M418,100.9h-8.6c0,2.1,1.7,3.1,3.8,3.1c1.5,0,2.9-0.1,4.2-0.7l0.3,2c-1.4,0.6-2.9,1-4.4,1
		c-3.8,0.1-6.7-2.3-6.5-6.3c0.1-3.9,2.9-5.8,6-5.8C417,94.2,418.8,97,418,100.9z M409.4,99.1h6.5c0-2-1.4-2.9-3-2.9
		C411.1,96.2,409.8,97.2,409.4,99.1z"/>
	<path class="st2" d="M428.3,89.2c0.8,0,1.6,0.5,1.6,1.5s-0.8,1.5-1.5,1.6c-0.8,0-1.6-0.5-1.6-1.6C426.7,89.7,427.5,89.2,428.3,89.2
		z M429.6,106H427V94.4h2.6V106z"/>
	<path class="st2" d="M441.8,106v-6.8c0-1.8-1.2-2.9-2.7-2.9c-1.6,0-3,1.3-3,3.1v6.6h-2.7v-8.3c0-1.4,0-1.7-1.2-1.6v-1.8
		c1.7-0.3,3.6-0.4,3.6,1.8c0.7-1.5,2.4-2,4-2c3.2,0,4.6,2.1,4.6,5v6.9H441.8z"/>
	<path class="st2" d="M57.6,132.7l-1.6,3.5h-3v-0.4l7.8-16.7h1.3l7.8,16.7v0.4H67l-1.7-3.5C65.3,132.7,57.6,132.7,57.6,132.7z
		 M58.5,130.3h5.9l-2.9-6.8L58.5,130.3z"/>
	<path class="st2" d="M82.2,124.6v8.3c0,1.4,0.1,1.8,1.2,1.7v1.7c-1.5,0.3-3.6,0.6-3.6-1.9c-0.8,1.6-2.4,2.1-4,2.1
		c-3.2,0-4.3-2.2-4.3-5.1v-6.7h2.7v6.7c0,1.9,1,3,2.5,3c1.7,0,2.9-1.2,2.9-3.1v-6.7H82.2z"/>
	<path class="st2" d="M87.8,132.8c0.1,1.2,1.4,1.8,2.7,1.8c1.3,0,2.7-0.4,2.8-1.8c0-1.1-1.1-1.4-2.6-1.6c-2.4-0.3-5.1-0.6-5.1-3.2
		c0-2.5,2.4-3.6,5-3.6c2.7,0,5,1.2,5,3.5h-2.3c0-1.2-1.4-1.5-2.6-1.5s-2.5,0.6-2.4,1.6c0,1,1,1.2,2.8,1.4c2.4,0.3,4.8,0.7,4.8,3.5
		c0,2.6-2.5,3.7-5.1,3.7s-5.1-0.8-5.3-3.7h2.3V132.8z"/>
	<path class="st2" d="M102.1,124.6h4v1.9h-4v5.1c0,2,0.8,2.7,2.1,2.8c0.6,0,1.4-0.1,2.2-0.4l0.3,2c-1,0.3-2,0.5-2.9,0.5
		c-2.5,0-4.2-1.4-4.2-4.8v-5.2l-2.4-0.2v-1.7h2.4l0.3-3.6h2.3v3.6H102.1z"/>
	<path class="st2" d="M115,124.3c1,0,1.9,0.3,2.7,0.8l-0.7,2.3c-0.7-0.5-1.5-0.7-2.3-0.7c-1.6,0-3,0.9-3,2.8v6.7h-2.6v-8.4
		c0-1,0-1.6-1.3-1.5v-1.8c1.7-0.4,3.6-0.1,3.7,1.8C112.1,125,113.6,124.4,115,124.3z"/>
	<path class="st2" d="M122.8,136.4c-2.8,0-4.2-1.7-4.2-3.5c0-2.2,1.5-3.9,4.5-3.9c1.1,0,2.4,0.2,3.5,0.8v-1.4c0-2.9-5.2-2-6.7-1.3
		l-0.4-1.9c1.2-0.6,2.8-0.8,4.3-0.8c2.8,0,5.3,0.9,5.3,4.1v4.6c0,1.1,0,1.7,1.2,1.6v1.6c-1.8,0.4-3.3,0.3-3.3-2
		C126.3,135.8,124.4,136.4,122.8,136.4z M123.5,130.8c-1.3,0-2.3,0.7-2.3,2c0,1,0.6,1.6,2.1,1.6c1.4,0,3-0.7,3.3-2.9
		C126,131.2,124.6,130.8,123.5,130.8z"/>
	<path class="st2" d="M135.2,118.5V132c0,1.6,0.4,2.3,1.6,2.3c0.3,0,0.5,0,0.9-0.1l0.1,2c-0.7,0.1-1.3,0.2-1.8,0.2
		c-2.3,0-3.4-1.2-3.4-4.4v-13.5H135.2z"/>
	<path class="st2" d="M141.1,119.4c0.8,0,1.6,0.5,1.6,1.5s-0.8,1.5-1.5,1.6c-0.8,0-1.6-0.5-1.6-1.6
		C139.5,119.9,140.3,119.4,141.1,119.4z M142.4,136.2h-2.6v-11.6h2.6V136.2z"/>
	<path class="st2" d="M149.1,136.4c-2.8,0-4.2-1.7-4.2-3.5c0-2.2,1.5-3.9,4.5-3.9c1.1,0,2.4,0.2,3.5,0.8v-1.4c0-2.9-5.2-2-6.7-1.3
		l-0.4-1.9c1.2-0.6,2.8-0.8,4.3-0.8c2.8,0,5.3,0.9,5.3,4.1v4.6c0,1.1,0,1.7,1.2,1.6v1.6c-1.8,0.4-3.3,0.3-3.3-2
		C152.6,135.8,150.8,136.4,149.1,136.4z M149.8,130.8c-1.3,0-2.3,0.7-2.3,2c0,1,0.6,1.6,2.1,1.6c1.4,0,3-0.7,3.3-2.9
		C152.3,131.2,151,130.8,149.8,130.8z"/>
	<path class="st2" d="M166.5,119.4c0.8,0,1.6,0.5,1.6,1.5s-0.8,1.5-1.5,1.6c-0.8,0-1.6-0.5-1.6-1.6
		C164.9,119.9,165.7,119.4,166.5,119.4z M167.8,136.2h-2.6v-11.6h2.6V136.2z"/>
	<path class="st2" d="M173,132.8c0.1,1.2,1.4,1.8,2.7,1.8s2.7-0.4,2.8-1.8c0-1.1-1.1-1.4-2.6-1.6c-2.4-0.3-5.1-0.6-5.1-3.2
		c0-2.5,2.4-3.6,5-3.6c2.7,0,5,1.2,5,3.5h-2.3c0-1.2-1.4-1.5-2.6-1.5c-1.2,0-2.5,0.6-2.4,1.6c0,1,1,1.2,2.8,1.4
		c2.4,0.3,4.8,0.7,4.8,3.5c0,2.6-2.5,3.7-5.1,3.7s-5.1-0.8-5.3-3.7h2.3V132.8z"/>
	<path class="st2" d="M198.1,134.1c-0.8,1.7-2.1,2.4-3.9,2.4c-3.5,0.1-5.4-2.8-5.4-6.1c0-3.6,2.5-6,5.5-6c1,0,2.2,0.3,3.2,0.9v-6.8
		h2.6v14.1c0,1.3-0.1,1.8,1.2,1.8v1.8c-1.8,0.3-3.4,0.1-3.4-1.8v-0.3H198.1z M197.7,127.6c-0.9-0.7-2-0.9-2.9-0.9
		c-1.8,0-3.3,1.3-3.3,3.7c0,2,1,3.7,3.2,3.7c1.8,0,3-1.5,3-3.2V127.6z"/>
	<path class="st2" d="M205.5,119.4c0.8,0,1.6,0.5,1.6,1.5s-0.8,1.5-1.5,1.6c-0.8,0-1.6-0.5-1.6-1.6
		C203.9,119.9,204.7,119.4,205.5,119.4z M206.8,136.2h-2.6v-11.6h2.6V136.2z"/>
	<path class="st2" d="M212,132.8c0.1,1.2,1.4,1.8,2.7,1.8s2.7-0.4,2.8-1.8c0-1.1-1.1-1.4-2.6-1.6c-2.4-0.3-5.1-0.6-5.1-3.2
		c0-2.5,2.4-3.6,5-3.6c2.7,0,5,1.2,5,3.5h-2.3c0-1.2-1.4-1.5-2.6-1.5c-1.2,0-2.5,0.6-2.4,1.6c0,1,1,1.2,2.8,1.4
		c2.4,0.3,4.8,0.7,4.8,3.5c0,2.6-2.5,3.7-5.1,3.7s-5.1-0.8-5.3-3.7h2.3V132.8z"/>
	<path class="st2" d="M229,124.3c3.4,0,5.3,2.8,5.3,6c0,3.7-2.7,6.2-5.8,6.1c-1,0-2-0.3-2.9-0.9v6.7H223v-13.9c0-1.4,0.1-2-1.2-2
		v-1.8c1.9-0.4,3.4-0.1,3.4,2C225.9,124.9,227.4,124.3,229,124.3z M225.5,133.2c1,0.7,2,1,3,0.9c1.8-0.1,3.2-1.4,3.2-3.8
		c0-1.9-1-3.6-3.1-3.6c-1.8,0-3,1.4-3,3.1L225.5,133.2L225.5,133.2z"/>
	<path class="st2" d="M243.3,124.3c1,0,1.9,0.3,2.7,0.8l-0.7,2.3c-0.7-0.5-1.5-0.7-2.3-0.7c-1.6,0-3,0.9-3,2.8v6.7h-2.6v-8.4
		c0-1,0-1.6-1.3-1.5v-1.8c1.7-0.4,3.6-0.1,3.7,1.8C240.3,125,241.8,124.4,243.3,124.3z"/>
	<path class="st2" d="M253,136.4c-3.1,0-6.1-2-6.1-6.1c0-4,3-6,6-6c3.2,0,6.3,1.9,6.3,6C259.2,134.4,256.1,136.4,253,136.4z
		 M253,134.1c1.7,0,3.5-1.3,3.5-3.8c0-2.5-1.8-3.7-3.6-3.7c-1.7,0-3.4,1.2-3.4,3.7C249.5,132.9,251.3,134.1,253,134.1z"/>
	<path class="st2" d="M268.4,124.3c3.4,0,5.3,2.8,5.3,6c0,3.7-2.7,6.2-5.8,6.1c-1,0-2-0.3-2.9-0.9v6.7h-2.6v-13.9c0-1.4,0.1-2-1.2-2
		v-1.8c1.9-0.4,3.4-0.1,3.4,2C265.3,124.9,266.7,124.3,268.4,124.3z M264.8,133.2c1,0.7,2,1,3,0.9c1.8-0.1,3.2-1.4,3.2-3.8
		c0-1.9-1-3.6-3.1-3.6c-1.8,0-3,1.4-3,3.1v3.4H264.8z"/>
	<path class="st2" d="M281.8,136.4c-3.1,0-6.1-2-6.1-6.1c0-4,3-6,6-6c3.2,0,6.3,1.9,6.3,6C287.9,134.4,284.8,136.4,281.8,136.4z
		 M281.8,134.1c1.7,0,3.5-1.3,3.5-3.8c0-2.5-1.8-3.7-3.6-3.7c-1.7,0-3.4,1.2-3.4,3.7C278.2,132.9,280,134.1,281.8,134.1z"/>
	<path class="st2" d="M296.9,124.3c1,0,1.9,0.3,2.7,0.8l-0.6,2.3c-0.7-0.5-1.5-0.7-2.3-0.7c-1.6,0-3,0.9-3,2.8v6.7H291v-8.4
		c0-1,0-1.6-1.3-1.5v-1.8c1.7-0.4,3.6-0.1,3.7,1.8C293.9,125,295.5,124.4,296.9,124.3z"/>
	<path class="st2" d="M305.3,124.6h4v1.9h-4v5.1c0,2,0.8,2.7,2.1,2.8c0.6,0,1.4-0.1,2.2-0.4l0.3,2c-1,0.3-2,0.5-2.9,0.5
		c-2.5,0-4.2-1.4-4.2-4.8v-5.2l-2.4-0.2v-1.7h2.4l0.2-3.6h2.3V124.6z"/>
	<path class="st2" d="M313.3,119.4c0.8,0,1.6,0.5,1.6,1.5s-0.8,1.5-1.5,1.6c-0.8,0-1.6-0.5-1.6-1.6
		C311.7,119.9,312.5,119.4,313.3,119.4z M314.6,136.2H312v-11.6h2.6V136.2z"/>
	<path class="st2" d="M323.5,136.4c-3.1,0-6.1-2-6.1-6.1c0-4,3-6,6-6c3.2,0,6.3,1.9,6.3,6C329.6,134.4,326.6,136.4,323.5,136.4z
		 M323.5,134.1c1.7,0,3.5-1.3,3.5-3.8c0-2.5-1.8-3.7-3.6-3.7c-1.7,0-3.4,1.2-3.4,3.7C320,132.9,321.8,134.1,323.5,134.1z"/>
	<path class="st2" d="M341.1,136.2v-6.8c0-1.8-1.2-2.9-2.7-2.9c-1.6,0-3,1.3-3,3.1v6.6h-2.7v-8.3c0-1.4,0-1.7-1.2-1.6v-1.8
		c1.7-0.3,3.6-0.4,3.6,1.8c0.7-1.5,2.4-2,4-2c3.2,0,4.6,2.1,4.6,5v6.8h-2.6V136.2z"/>
	<path class="st2" d="M350.3,136.4c-2.8,0-4.2-1.7-4.2-3.5c0-2.2,1.5-3.9,4.5-3.9c1.1,0,2.4,0.2,3.5,0.8v-1.4c0-2.9-5.2-2-6.7-1.3
		l-0.4-1.9c1.2-0.6,2.8-0.8,4.3-0.8c2.8,0,5.3,0.9,5.3,4.1v4.6c0,1.1,0,1.7,1.2,1.6v1.6c-1.8,0.4-3.3,0.3-3.3-2
		C353.8,135.8,351.9,136.4,350.3,136.4z M351,130.8c-1.3,0-2.3,0.7-2.3,2c0,1,0.7,1.6,2.1,1.6s3-0.7,3.3-2.9
		C353.5,131.2,352.1,130.8,351,130.8z"/>
	<path class="st2" d="M363.7,124.6h4v1.9h-4v5.1c0,2,0.8,2.7,2.1,2.8c0.6,0,1.4-0.1,2.1-0.4l0.3,2c-1,0.3-2,0.5-2.9,0.5
		c-2.5,0-4.2-1.4-4.2-4.8v-5.2l-2.4-0.2v-1.7h2.4l0.3-3.6h2.3L363.7,124.6L363.7,124.6z"/>
	<path class="st2" d="M380.9,131.1h-8.6c0,2.1,1.7,3.1,3.8,3.1c1.5,0,2.9-0.1,4.2-0.7l0.3,2c-1.4,0.6-2.9,1-4.4,1
		c-3.8,0.1-6.7-2.3-6.5-6.3c0.1-3.9,2.9-5.8,6-5.8C379.8,124.3,381.7,127.2,380.9,131.1z M372.3,129.3h6.5c0-2-1.4-2.9-3-2.9
		C374,126.4,372.7,127.4,372.3,129.3z"/>
	<path class="st2" d="M386.2,118.5V132c0,1.6,0.4,2.3,1.6,2.3c0.3,0,0.5,0,0.9-0.1l0.1,2c-0.7,0.1-1.3,0.2-1.8,0.2
		c-2.3,0-3.4-1.2-3.4-4.4v-13.5H386.2z"/>
	<path class="st2" d="M396.3,137.2c-1.4,3.4-2.8,6.2-6.8,4.4l0.3-1.9c2.1,0.9,3.1-0.1,3.8-2l0.6-1.4l-5.2-11.4v-0.3h2.8l1.7,4.1
		l1.9,5.1h0.1l1.8-5.1l1.5-4.1h2.6v0.3L396.3,137.2z"/>
	<path class="st2" d="M417.7,128.5c-0.5-1.3-1.7-1.9-3.1-1.9c-1.8,0-3.6,1.2-3.6,3.6c0,2.5,1.8,3.8,3.6,3.8c1.3,0,2.6-0.7,3.1-2.1
		h2.5c-0.6,2.9-3.1,4.4-5.7,4.4c-3,0-6.1-2.1-6.1-6.1c0-4,3.1-6,6.1-6c2.5,0,5,1.4,5.7,4.2h-2.5V128.5z"/>
	<path class="st2" d="M426,136.4c-2.8,0-4.2-1.7-4.2-3.5c0-2.2,1.5-3.9,4.5-3.9c1.1,0,2.4,0.2,3.5,0.8v-1.4c0-2.9-5.2-2-6.7-1.3
		l-0.4-1.9c1.2-0.6,2.8-0.8,4.3-0.8c2.8,0,5.3,0.9,5.3,4.1v4.6c0,1.1,0,1.7,1.2,1.6v1.6c-1.8,0.4-3.3,0.3-3.3-2
		C429.6,135.8,427.7,136.4,426,136.4z M426.7,130.8c-1.3,0-2.3,0.7-2.3,2c0,1,0.7,1.6,2.1,1.6s3-0.7,3.3-2.9
		C429.3,131.2,427.9,130.8,426.7,130.8z"/>
	<path class="st2" d="M442.3,124.3c1,0,1.9,0.3,2.7,0.8l-0.6,2.3c-0.7-0.5-1.5-0.7-2.3-0.7c-1.6,0-3,0.9-3,2.8v6.7h-2.6v-8.4
		c0-1,0-1.6-1.3-1.5v-1.8c1.7-0.4,3.6-0.1,3.7,1.8C439.3,125,440.9,124.4,442.3,124.3z"/>
	<path class="st2" d="M453.2,124.3c1,0,1.9,0.3,2.7,0.8l-0.6,2.3c-0.7-0.5-1.5-0.7-2.3-0.7c-1.6,0-3,0.9-3,2.8v6.7h-2.6v-8.4
		c0-1,0-1.6-1.3-1.5v-1.8c1.7-0.4,3.6-0.1,3.7,1.8C450.2,125,451.8,124.4,453.2,124.3z"/>
	<path class="st2" d="M459.2,119.4c0.8,0,1.6,0.5,1.6,1.5s-0.8,1.5-1.5,1.6c-0.8,0-1.6-0.5-1.6-1.6
		C457.6,119.9,458.4,119.4,459.2,119.4z M460.5,136.2h-2.6v-11.6h2.6V136.2z"/>
	<path class="st2" d="M474.4,131.1h-8.6c0,2.1,1.7,3.1,3.8,3.1c1.5,0,2.9-0.1,4.2-0.7l0.3,2c-1.4,0.6-2.9,1-4.4,1
		c-3.8,0.1-6.7-2.3-6.5-6.3c0.1-3.9,2.9-5.8,6-5.8C473.4,124.3,475.2,127.2,474.4,131.1z M465.8,129.3h6.5c0-2-1.4-2.9-3-2.9
		C467.5,126.4,466.2,127.4,465.8,129.3z"/>
	<path class="st2" d="M485.8,134.1c-0.8,1.7-2.1,2.4-3.9,2.4c-3.5,0.1-5.4-2.8-5.4-6.1c0-3.6,2.5-6,5.5-6c1,0,2.2,0.3,3.2,0.9v-6.8
		h2.6v14.1c0,1.3-0.1,1.8,1.2,1.8v1.8c-1.8,0.3-3.4,0.1-3.4-1.8v-0.3H485.8z M485.3,127.6c-0.9-0.7-2-0.9-2.9-0.9
		c-1.8,0-3.3,1.3-3.3,3.7c0,2,1,3.7,3.2,3.7c1.8,0,3-1.5,3-3.2L485.3,127.6L485.3,127.6z"/>
	<path class="st2" d="M497.8,118.5h2.6v6.6c1.1-0.6,2.3-0.8,3.4-0.8c3,0,5.6,2.4,5.6,6.2c0,4.5-3.2,5.9-6.6,5.9
		c-1.6,0-3.4-0.3-4.9-0.9v-17H497.8z M500.4,133.9c0.8,0.2,1.8,0.4,2.6,0.4c2.1,0,3.7-0.9,3.7-3.8c0-2.4-1.5-3.7-3.3-3.8
		c-0.9,0-2,0.1-3,0.7L500.4,133.9L500.4,133.9z"/>
	<path class="st2" d="M517.7,137.2c-1.4,3.4-2.8,6.2-6.8,4.4l0.3-1.9c2.1,0.9,3.1-0.1,3.8-2l0.6-1.4l-5.2-11.4v-0.3h2.8l1.7,4.1
		l1.9,5.1h0.1l1.8-5.1l1.5-4.1h2.6v0.3L517.7,137.2z"/>
	<path class="st2" d="M62.6,211l-1.8,3.8h-8.5v-1.1l14.2-30.2h3.7l14.1,30.2v1.1H76l-1.8-3.8H62.6z M65.2,204.3h6.4l-3.2-7.5
		L65.2,204.3z"/>
	<path class="st2" d="M106,198.6c2.5,1.3,3.9,3.8,3.9,6.6c0,5.3-3.5,9.4-9.8,9.4h-15v-30.9h13.7c5.8,0,9.8,3.8,9.8,9.5
		C108.5,195.2,107.5,197.4,106,198.6z M93.2,190.8v5.2h5c1.5,0,2.3-1.2,2.4-2.4c0-1.4-0.8-2.7-2.4-2.7h-5V190.8z M93.2,202.5v5.1
		h6.2c1.6,0,2.3-1.2,2.4-2.4c0-0.9-0.4-1.9-1.1-2.4c-0.4-0.2-0.8-0.3-1.3-0.3L93.2,202.5L93.2,202.5z"/>
	<path class="st2" d="M126.9,215.4c-8.2,0-15.8-5.2-15.8-16c0-10.7,7.9-16,16-16c7.9,0,15.8,5.3,15.8,16
		C142.8,208.9,136.3,215.4,126.9,215.4z M126.9,207.7c3.8,0,7.8-2.8,7.8-8.3s-3.9-8.3-7.7-8.3c-4,0-7.9,2.6-7.9,8.3
		C119.1,204.9,122.9,207.7,126.9,207.7z"/>
	<path class="st2" d="M171.9,213.7v1.2h-8.6l-5.3-9.7h-4.2v9.7h-8.1v-31c4.6,0,9.1,0,13.6,0c7.5,0,11.2,5.5,11.2,11
		c0,3.5-1.5,6.9-4.6,9L171.9,213.7z M159.3,198.5c2.3,0,3.4-1.9,3.4-3.9c0-1.9-1.1-3.8-3.4-3.8h-5.6v7.7H159.3z"/>
	<path class="st2" d="M189.1,208.3v6.6h-16v-6.6h3.9v-17.9h-3.6v-6.5h15.3v6.5h-3.6v17.9H189.1z"/>
	<path class="st2" d="M206.2,183.4c6.2,0,12.6,3.1,14.2,10.7h-7.9c-1.4-2.5-3.3-3.4-6.3-3.4c-5,0-7.7,4-7.7,8.7c0,5.2,3,8.5,7.7,8.5
		c3.2,0,5.2-0.8,6.7-3.8h-6.6v-6.8h14.6c0.2,3,0.2,6-0.8,9c-2.3,6.5-8.1,9-13.9,9c-7.9,0-15.9-5.3-15.9-15.8
		C190.2,188.8,198.3,183.4,206.2,183.4z"/>
	<path class="st2" d="M238.1,208.3v6.6h-16v-6.6h3.9v-17.9h-3.6v-6.5h15.3v6.5h-3.6v17.9H238.1z"/>
	<path class="st2" d="M249.5,198.9v16h-8.1v-31.1h2.5l16.2,15.3V184h8.1v31h-2.4L249.5,198.9z"/>
	<path class="st2" d="M279,211l-1.8,3.8h-8.5v-1.1l14.2-30.2h3.7l14.1,30.2v1.1h-8.4l-1.8-3.8H279z M281.7,204.3h6.4l-3.2-7.5
		L281.7,204.3z"/>
	<path class="st2" d="M309.6,207.6h11.2v7.3h-19.3v-31h8.1L309.6,207.6L309.6,207.6z"/>
	<path class="st2" d="M335.3,215.4c-4,0-7.6-2.7-7.7-6.8c-0.2-5.2,4-7.1,8.2-7.1c1.7,0,3.3,0.4,4.8,1.2v-1.5c0-2.2-3-2.6-4.6-2.6
		c-2.1,0-4.1,0.2-5.9,1.2l-0.9-5.2c2.3-1,5.2-1.5,8.1-1.5c5.8,0,10.6,1.9,10.6,8.3v6.9c0,1.6,0.1,2.5,1.9,2.5v4.1
		c-3.1,0.7-7.2,1-7.7-3C341,214.4,337.8,215.4,335.3,215.4z M337.2,205.8c-3.3,0-3.2,4-0.3,4c1.5,0,3.5-0.8,3.8-2.9
		C339.7,206.2,338.3,205.8,337.2,205.8z"/>
	<path class="st2" d="M366.3,214.9v-12.2c0-2.4-1.5-3.6-3.1-3.7c-1.8,0-3.6,1.2-3.6,3.8v12.1h-7.5V200c0-1.6,0.1-2.4-1.8-2.4v-4.1
		c3-0.7,9-1.2,9.1,3c1.2-2.3,3.7-3.4,6.2-3.4c6.2,0,8.5,4.2,8.3,9.6v12.2L366.3,214.9L366.3,214.9z"/>
	<path class="st2" d="M385.7,215.4c-6.5,0.1-10.2-4.8-10.2-11.1c0-6.4,4.8-11.2,10.4-11.2c1.3,0,2.7,0.2,4.1,0.8v-11.3h7.5v25.7
		c0,1.7-0.1,2.4,1.8,2.4v4.2c-2.9,0.7-7.7,1.2-7.8-3C390.4,214.2,388.2,215.3,385.7,215.4z M390.2,200.3c-1-0.4-2-0.7-2.9-0.7
		c-2.3,0-4.1,1.7-4.1,4.6c0,2.6,1.1,4.6,3.7,4.6c2.1,0,3.2-1.8,3.2-3.8L390.2,200.3L390.2,200.3z"/>
	<path class="st2" d="M53.8,244.6v-7.1h23v7.1h-7.6v23.9h-7.8v-23.9H53.8z"/>
	<path class="st2" d="M92.5,269c-8.2,0-15.8-5.2-15.8-16c0-10.7,7.9-16,16-16c7.9,0,15.8,5.3,15.8,16
		C108.4,262.5,101.9,269,92.5,269z M92.5,261.4c3.8,0,7.8-2.8,7.8-8.3c0-5.5-3.9-8.3-7.7-8.3c-4,0-7.9,2.6-7.9,8.3
		C84.7,258.6,88.5,261.4,92.5,261.4z"/>
	<path class="st2" d="M137.5,267.3v1.2H129l-5.3-9.7h-4.2v9.7h-8.1v-31c4.6,0,9.1,0,13.6,0c7.5,0,11.2,5.5,11.2,11
		c0,3.5-1.5,6.9-4.6,9L137.5,267.3z M124.9,252.2c2.3,0,3.4-1.9,3.4-3.9c0-1.9-1.1-3.8-3.4-3.8h-5.6v7.7H124.9z"/>
	<path class="st2" d="M166.2,267.3v1.2h-8.6l-5.3-9.7H148v9.7h-8.1v-31c4.6,0,9.1,0,13.6,0c7.5,0,11.2,5.5,11.2,11
		c0,3.5-1.5,6.9-4.6,9L166.2,267.3z M153.5,252.2c2.3,0,3.4-1.9,3.4-3.9c0-1.9-1.1-3.8-3.4-3.8h-5.6v7.7H153.5z"/>
	<path class="st2" d="M187.8,244.6h-11.2v4.4H187v7.1h-10.4v5h11.6v7.4h-19.7v-31h19.3L187.8,244.6L187.8,244.6z"/>
	<path class="st2" d="M197.8,258.8c0,2.1,2.4,3.2,4.9,3.2c2.3,0,4.7-0.9,4.7-2.9c0-3-3.5-2.9-5.7-3c-5.7-0.4-11.3-2.4-11.3-8.9
		c0-6.7,5.7-10.1,12-10.1c6,0,12,3.4,11.9,10.1h-7.6c0-2.1-2-3-4.2-3c-1.8,0-4.2,0.5-4.2,2.8c0,2.1,1.8,2.3,4.7,2.7
		c6.6,0.6,12.3,1.9,12.3,9.4c0,6.5-6.3,9.9-12.7,9.9c-6.5,0-12.8-3.3-12.7-10.2H197.8z"/>
	<path class="st2" d="M232.8,258.8c0,2.1,2.4,3.2,4.9,3.2c2.3,0,4.7-0.9,4.7-2.9c0-3-3.5-2.9-5.7-3c-5.7-0.4-11.3-2.4-11.3-8.9
		c0-6.7,5.7-10.1,12-10.1c6,0,12,3.4,11.9,10.1h-7.6c0-2.1-2-3-4.2-3c-1.8,0-4.2,0.5-4.2,2.8c0,2.1,1.8,2.3,4.7,2.7
		c6.6,0.6,12.3,1.9,12.3,9.4c0,6.5-6.3,9.9-12.7,9.9c-6.6,0-12.8-3.3-12.7-10.2H232.8z"/>
	<path class="st2" d="M250.4,244.6v-7.1h23v7.1h-7.6v23.9H258v-23.9H250.4z"/>
	<path class="st2" d="M301.7,267.3v1.2h-8.6l-5.3-9.7h-4.2v9.7h-8.1v-31c4.6,0,9.1,0,13.6,0c7.5,0,11.2,5.5,11.2,11
		c0,3.5-1.5,6.9-4.6,9L301.7,267.3z M289,252.2c2.3,0,3.4-1.9,3.4-3.9c0-1.9-1.1-3.8-3.4-3.8h-5.6v7.7H289z"/>
	<path class="st2" d="M310.4,264.7l-1.8,3.8h-8.5v-1.1l14.2-30.2h3.7l14.1,30.2v1.1h-8.4l-1.8-3.8H310.4z M313,257.9h6.4l-3.2-7.5
		L313,257.9z"/>
	<path class="st2" d="M347.6,262v6.6h-16V262h3.9v-17.9H332v-6.5h15.3v6.5h-3.6V262H347.6z"/>
	<path class="st2" d="M348.4,244.6v-7.1h23v7.1h-7.6v23.9H356v-23.9H348.4z"/>
	<path class="st2" d="M71,315.6v6.6H55v-6.6h4v-17.9h-3.6v-6.5h15.3v6.5h-3.6v17.9H71z"/>
	<path class="st2" d="M80.5,312.5c0,2.1,2.4,3.2,4.9,3.2c2.3,0,4.7-0.9,4.7-2.9c0-3-3.5-2.9-5.7-3c-5.7-0.4-11.3-2.4-11.3-8.9
		c0-6.7,5.7-10.1,12-10.1c6,0,12,3.4,11.9,10.1h-7.6c0-2.1-2-3-4.2-3c-1.8,0-4.2,0.5-4.2,2.8c0,2.1,1.8,2.3,4.7,2.7
		c6.6,0.6,12.3,1.9,12.3,9.4c0,6.5-6.3,9.9-12.7,9.9c-6.5,0-12.8-3.3-12.7-10.2H80.5z"/>
	<path class="st2" d="M109,314.9h11.2v7.3h-19.3v-31h8.1C109,291.2,109,314.9,109,314.9z"/>
	<path class="st2" d="M128.6,318.3l-1.8,3.8h-8.5V321l14.2-30.2h3.7l14.1,30.2v1.1h-8.4l-1.8-3.8H128.6z M131.3,311.6h6.4l-3.2-7.5
		L131.3,311.6z"/>
	<path class="st2" d="M159.2,306.2v16h-8.1v-31.1h2.5l16.2,15.3v-15.1h8.1v31.1h-2.4L159.2,306.2z"/>
	<path class="st2" d="M194.2,291.3c10.1,0,15.3,7.7,15.3,15.3c0.1,7.8-5,15.6-15.3,15.6h-11.8v-30.9H194.2z M194.1,314.9
		c4.9,0,7.3-4.1,7.3-8.2s-2.5-8.1-7.3-8.1h-3.6V315L194.1,314.9L194.1,314.9z"/>
	<path class="st2" d="M231.7,298.2h-11.2v4.4h10.4v7.1h-10.4v5h11.6v7.4h-19.7v-31h19.3L231.7,298.2L231.7,298.2z"/>
	<path class="st2" d="M261.8,321v1.2h-8.6l-5.3-9.7h-4.2v9.7h-8.1v-31c4.6,0,9.1,0,13.6,0c7.5,0,11.2,5.5,11.2,11
		c0,3.5-1.6,6.9-4.6,9L261.8,321z M249.2,305.9c2.3,0,3.4-1.9,3.4-3.9c0-1.9-1.1-3.8-3.4-3.8h-5.6v7.7L249.2,305.9L249.2,305.9z"/>
	<path class="st2" d="M278.2,303.7c1.2-2.3,3.7-3.4,6.2-3.4c6.2,0.1,9.6,5,9.6,11c0,7.9-6.9,13.5-14.2,10.4v11.4h-7.5v-25.7
		c0-1.7,0.1-2.5-1.8-2.5v-4.1c2.6-0.6,7.8-1.2,7.8,2.8v0.1H278.2z M279.5,315.3c3.7,1.6,6.9,0.2,6.9-4c0-2.2-1.2-4.6-3.6-4.5
		c-2.1,0-3.2,1.9-3.2,3.8L279.5,315.3L279.5,315.3z"/>
	<path class="st2" d="M315.5,313.3h-13.2c0.4,2.7,2.8,3.4,5.6,3.4c2.5,0,5.4-0.8,6.9-1.4l0.8,5.4c-2.6,1.2-5.6,1.9-8.5,1.9
		c-7.1,0-12.3-4-12.3-11.2c0-7.7,5.8-11.2,11.3-11.2C314.2,300.4,317.4,305.8,315.5,313.3z M309.2,308.9c0.2-2-1.2-3.1-3.2-3.1
		c-1.7,0-3.4,1.3-3.7,3.1H309.2z"/>
	<path class="st2" d="M328.3,322.7c-5.7,0-11.4-3.7-11.4-11.2s5.6-11.1,11.3-11.1c5.7,0,11.4,3.5,11.4,11.1
		C339.6,318.9,333.9,322.6,328.3,322.7z M328.3,316.1c1.9,0,3.8-1.6,3.8-4.6c0-3.1-1.9-4.4-3.8-4.5c-1.9,0-3.9,1.3-3.9,4.5
		C324.4,314.6,326.3,316.1,328.3,316.1z"/>
	<path class="st2" d="M348.1,303.7c1.2-2.3,3.7-3.4,6.2-3.4c6.2,0.1,9.6,5,9.6,11c0,7.9-6.9,13.5-14.2,10.4v11.4H342v-25.7
		c0-1.7,0.1-2.5-1.8-2.5v-4.1c2.6-0.6,7.8-1.2,7.8,2.8v0.1H348.1z M349.4,315.3c3.7,1.6,6.9,0.2,6.9-4c0-2.2-1.2-4.6-3.6-4.5
		c-2.1,0-3.2,1.9-3.2,3.8L349.4,315.3L349.4,315.3z"/>
	<path class="st2" d="M372.9,289.8v23.4c0,2.9,1.5,3.5,3.7,3.1l0.2,5.6c-6.6,1.2-11.4-0.4-11.4-8.7v-23.4L372.9,289.8L372.9,289.8z"
		/>
	<path class="st2" d="M397.5,313.3h-13.2c0.4,2.7,2.8,3.4,5.6,3.4c2.5,0,5.4-0.8,6.9-1.4l0.8,5.4c-2.6,1.2-5.6,1.9-8.5,1.9
		c-7.1,0-12.3-4-12.3-11.2c0-7.7,5.8-11.2,11.3-11.2C396.2,300.4,399.4,305.8,397.5,313.3z M391.2,308.9c0.2-2-1.2-3.1-3.2-3.1
		c-1.7,0-3.4,1.3-3.7,3.1H391.2z"/>
	<path class="st2" d="M67,412.7c0,2.8,1.9,4.3,4.8,4.3c3,0,4.8-2.3,4.8-5.2c-0.2-6.6-6-6.4-11-5.9v-1.4l6.4-12.7H58.8v-9.1h27.5v1.6
		l-7.9,14.6c6.8,1.8,8.8,7.3,8.8,12.9c0,7.3-5.2,14.9-15.2,14.9c-8.4,0-14.7-5.4-14.9-13.9L67,412.7L67,412.7z"/>
	<path class="st2" d="M103.9,417.6l-5.2,8.3H87.8v-1.2L97.9,410l-8.5-12.8V396h10l4.3,6.7h0.2l4.1-6.7h10.7v1.2l-9,13.5l9.8,13.9
		v1.2h-10.2l-5.2-8.3L103.9,417.6L103.9,417.6z"/>
	<path class="st2" d="M158.5,425.8v-17.3h-13.4v17.3h-11.3v-43.2h11.3v15.6h13.4v-15.6h11.3v43.2H158.5z"/>
	<path class="st2" d="M196.6,416.7v9.1h-22.3v-9.1h5.5v-24.9h-5v-9.1h21.3v9.1h-5v24.9H196.6z"/>
	<path class="st2" d="M220.4,382c8.6,0,17.5,4.4,19.8,14.9h-11c-1.9-3.5-4.6-4.8-8.8-4.8c-7,0-10.8,5.6-10.8,12.2
		c0,7.2,4.2,11.8,10.8,11.8c4.4,0,7.3-1.1,9.3-5.2h-9.2v-9.5h20.4c0.3,4.2,0.2,8.3-1.2,12.5c-3.1,9.1-11.3,12.5-19.3,12.5
		c-11,0-22.2-7.3-22.2-22.1C198.2,389.5,209.4,382,220.4,382z"/>
	<path class="st2" d="M269.4,425.8v-17.3H256v17.3h-11.3v-43.2H256v15.6h13.4v-15.6h11.3v43.2H269.4z"/>
	<path class="st2" d="M313.9,392.4h-15.7v6.2h14.4v9.9h-14.4v7h16.2v10.3H287v-43.2h27v9.8H313.9z"/>
	<path class="st2" d="M355.9,424.2v1.6h-12l-7.4-13.5h-5.9v13.5h-11.3v-43.2c6.4,0,12.6-0.1,19,0c10.4,0,15.5,7.7,15.5,15.3
		c-0.1,4.9-2.2,9.7-6.4,12.6L355.9,424.2z M338.2,403.1c3.1,0,4.7-2.7,4.7-5.4c0-2.7-1.5-5.2-4.7-5.2h-7.8v10.7h7.8V403.1z"/>
	<path class="st2" d="M53.7,371l-4.6-11.5v-0.3H52l1.5,4l1.1,3.2l0,0l2.8-6.9h1.3l2.8,7h0.1l1.1-3.2c0.5-1.4,1-2.7,1.5-4h2.9v0.3
		L62.3,371h-1.2l-3.1-7l-3.1,7H53.7z"/>
	<path class="st2" d="M70.4,354.1c0.8,0,1.6,0.5,1.6,1.5s-0.8,1.5-1.5,1.6c-0.8,0-1.6-0.5-1.6-1.6C68.8,354.6,69.6,354.1,70.4,354.1
		z M71.7,370.8h-2.6v-11.6h2.6V370.8z"/>
	<path class="st2" d="M78.9,359.2h4v1.9h-4v5.1c0,2,0.8,2.7,2.1,2.8c0.6,0,1.4-0.1,2.1-0.4l0.3,2c-1,0.3-2,0.5-2.9,0.5
		c-2.5,0-4.2-1.4-4.2-4.8v-5.2l-2.4-0.2v-1.7h2.4l0.3-3.6h2.3C78.9,355.6,78.9,359.2,78.9,359.2z"/>
	<path class="st2" d="M93.9,370.8V364c0-1.9-1.1-2.9-2.7-2.9c-1.7,0-3,1.2-3,3.1v6.7h-2.6v-17.7h2.6v7.5c1-1.3,2.2-1.7,3.7-1.7
		c3.2,0,4.6,2,4.6,5v6.8H93.9z"/>
	<path class="st2" d="M107.3,354.1c0.8,0,1.6,0.5,1.6,1.5s-0.8,1.5-1.5,1.6c-0.8,0-1.6-0.5-1.6-1.6
		C105.7,354.6,106.5,354.1,107.3,354.1z M108.6,370.8H106v-11.6h2.6V370.8z"/>
	<path class="st2" d="M120.8,370.8V364c0-1.8-1.2-2.9-2.7-2.9c-1.6,0-3,1.3-3,3.1v6.6h-2.7v-8.3c0-1.4,0-1.7-1.2-1.6v-1.8
		c1.7-0.3,3.6-0.4,3.6,1.8c0.7-1.5,2.4-2,4-2c3.2,0,4.6,2.1,4.6,5v6.8L120.8,370.8L120.8,370.8z"/>
	<path class="st2" d="M127.6,361.2h-2.2v-2h2.2v-1.6c0-4.6,3.5-5.3,7.2-4.1l-0.3,1.8c-2.1-0.8-4.3-0.6-4.3,2.3v1.5h3.9v2h-3.9v9.6
		h-2.6V361.2z"/>
	<path class="st2" d="M146.3,365.7h-8.6c0,2.1,1.7,3.1,3.8,3.1c1.5,0,2.9-0.1,4.2-0.7l0.3,2c-1.4,0.6-2.9,1-4.4,1
		c-3.8,0.1-6.7-2.3-6.5-6.3c0.1-3.9,2.9-5.8,6-5.8C145.3,359,147.1,361.9,146.3,365.7z M137.8,363.9h6.5c0-2-1.4-2.9-3-2.9
		C139.4,361,138.1,362.1,137.8,363.9z"/>
	<path class="st2" d="M157.8,363.2c-0.5-1.3-1.7-1.9-3.1-1.9c-1.8,0-3.6,1.2-3.6,3.6c0,2.5,1.8,3.8,3.6,3.8c1.3,0,2.6-0.7,3.1-2.1
		h2.5c-0.6,2.9-3.1,4.4-5.7,4.4c-3,0-6.1-2.1-6.1-6.1s3.1-6,6.1-6c2.5,0,5,1.4,5.7,4.2h-2.5V363.2z"/>
	<path class="st2" d="M166.6,359.2h4v1.9h-4v5.1c0,2,0.8,2.7,2.1,2.8c0.6,0,1.4-0.1,2.2-0.4l0.3,2c-1,0.3-2,0.5-2.9,0.5
		c-2.5,0-4.2-1.4-4.2-4.8v-5.2l-2.4-0.2v-1.7h2.4l0.3-3.6h2.3v3.6H166.6z"/>
	<path class="st2" d="M174.6,354.1c0.8,0,1.6,0.5,1.6,1.5s-0.8,1.5-1.5,1.6c-0.8,0-1.6-0.5-1.6-1.6
		C173,354.6,173.8,354.1,174.6,354.1z M175.9,370.8h-2.6v-11.6h2.6V370.8z"/>
	<path class="st2" d="M184.8,371.1c-3.1,0-6.1-2-6.1-6.1c0-4,3-6,6-6c3.2,0,6.3,1.9,6.3,6C191,369,187.9,371.1,184.8,371.1z
		 M184.8,368.7c1.7,0,3.5-1.3,3.5-3.8s-1.8-3.7-3.6-3.7c-1.7,0-3.4,1.2-3.4,3.7C181.3,367.5,183.1,368.8,184.8,368.7z"/>
	<path class="st2" d="M202.4,370.8V364c0-1.8-1.2-2.9-2.7-2.9c-1.6,0-2.9,1.3-2.9,3.1v6.6H194v-8.3c0-1.4,0-1.7-1.2-1.6v-1.8
		c1.7-0.3,3.6-0.4,3.6,1.8c0.7-1.5,2.4-2,4-2c3.2,0,4.6,2.1,4.6,5v6.8L202.4,370.8L202.4,370.8z"/>
	<path class="st2" d="M220.6,359c1,0,1.9,0.3,2.7,0.8l-0.7,2.3c-0.7-0.5-1.5-0.7-2.3-0.7c-1.6,0-3,0.9-3,2.8v6.7h-2.6v-8.4
		c0-1,0-1.6-1.3-1.5v-1.8c1.7-0.4,3.6-0.1,3.7,1.8C217.7,359.6,219.2,359,220.6,359z"/>
	<path class="st2" d="M228.4,371.1c-2.8,0-4.2-1.7-4.2-3.5c0-2.2,1.5-3.9,4.5-3.9c1.1,0,2.4,0.2,3.5,0.8V363c0-2.9-5.2-2-6.7-1.3
		l-0.4-1.9c1.2-0.6,2.8-0.8,4.3-0.8c2.8,0,5.3,0.9,5.3,4.1v4.6c0,1.1,0,1.7,1.2,1.6v1.6c-1.8,0.4-3.3,0.3-3.3-2
		C231.9,370.4,230,371.1,228.4,371.1z M229.1,365.5c-1.3,0-2.3,0.7-2.3,2c0,1,0.7,1.6,2.1,1.6c1.4,0,3-0.7,3.3-2.9
		C231.6,365.8,230.2,365.5,229.1,365.5z"/>
	<path class="st2" d="M241.9,359.2h4v1.9h-4v5.1c0,2,0.8,2.7,2.1,2.8c0.6,0,1.4-0.1,2.2-0.4l0.3,2c-1,0.3-2,0.5-2.9,0.5
		c-2.5,0-4.2-1.4-4.2-4.8v-5.2l-2.4-0.2v-1.7h2.4l0.3-3.6h2.3v3.6H241.9z"/>
	<path class="st2" d="M259,365.7h-8.6c0,2.1,1.7,3.1,3.8,3.1c1.5,0,2.9-0.1,4.2-0.7l0.3,2c-1.4,0.6-2.9,1-4.4,1
		c-3.8,0.1-6.7-2.3-6.5-6.3c0.1-3.9,2.9-5.8,6-5.8C257.9,359,259.8,361.9,259,365.7z M250.4,363.9h6.5c0-2-1.4-2.9-3-2.9
		C252.1,361,250.8,362.1,250.4,363.9z"/>
	<path class="st2" d="M263.6,367.4c0.1,1.2,1.4,1.8,2.7,1.8c1.3,0,2.7-0.4,2.8-1.8c0-1.1-1.1-1.4-2.6-1.6c-2.4-0.3-5.1-0.6-5.1-3.2
		c0-2.5,2.4-3.6,5-3.6c2.7,0,5,1.2,4.9,3.5H269c0-1.2-1.4-1.5-2.6-1.5s-2.5,0.6-2.4,1.6c0,1,1,1.2,2.8,1.4c2.4,0.3,4.8,0.7,4.8,3.5
		c0,2.6-2.5,3.7-5.1,3.7s-5.1-0.8-5.3-3.7L263.6,367.4L263.6,367.4z"/>
	<path class="st2" d="M60.1,444.1h4v1.9h-4v5.1c0,2,0.8,2.7,2.1,2.8c0.6,0,1.4-0.1,2.2-0.4l0.3,2c-1,0.3-2,0.5-2.9,0.5
		c-2.5,0-4.2-1.4-4.2-4.8V446l-2.4-0.2v-1.7h2.4l0.3-3.6h2.3L60.1,444.1L60.1,444.1z"/>
	<path class="st2" d="M75.1,455.7v-6.8c0-1.9-1.1-2.9-2.7-2.9c-1.7,0-3,1.2-3,3.1v6.7h-2.6v-17.7h2.6v7.5c1-1.3,2.2-1.7,3.7-1.7
		c3.2,0,4.6,2,4.6,5v6.8H75.1z"/>
	<path class="st2" d="M84.3,455.9c-2.8,0-4.2-1.7-4.2-3.5c0-2.2,1.5-3.9,4.5-3.9c1.1,0,2.4,0.2,3.5,0.8v-1.4c0-2.9-5.2-2-6.7-1.3
		l-0.4-1.9c1.2-0.6,2.8-0.8,4.3-0.8c2.8,0,5.3,0.9,5.3,4.1v4.6c0,1.1,0,1.7,1.2,1.6v1.6c-1.8,0.4-3.3,0.3-3.3-2
		C87.8,455.3,86,455.9,84.3,455.9z M85,450.4c-1.3,0-2.3,0.7-2.3,2c0,1,0.7,1.6,2.1,1.6s3-0.7,3.3-2.9
		C87.5,450.7,86.2,450.4,85,450.4z"/>
	<path class="st2" d="M103,455.7v-6.8c0-1.8-1.2-2.9-2.7-2.9c-1.6,0-3,1.3-3,3.1v6.6h-2.7v-8.3c0-1.4,0-1.7-1.2-1.6V444
		c1.7-0.3,3.6-0.4,3.6,1.8c0.7-1.5,2.4-2,4-2c3.2,0,4.6,2.1,4.6,5v6.8H103V455.7z"/>
	<path class="st2" d="M123.7,455.7v-6.8c0-1.8-1.2-2.9-2.7-2.9c-1.6,0-3,1.3-3,3.1v6.6h-2.7v-8.3c0-1.4,0-1.7-1.2-1.6V444
		c1.7-0.3,3.6-0.4,3.6,1.8c0.7-1.5,2.4-2,4-2c3.2,0,4.6,2.1,4.6,5v6.8h-2.6V455.7z"/>
	<path class="st2" d="M135,455.9c-3.1,0-6.1-2-6.1-6.1c0-4,3-6,6-6c3.2,0,6.3,1.9,6.3,6S138.1,455.9,135,455.9z M135.1,453.6
		c1.7,0,3.5-1.3,3.5-3.8s-1.8-3.7-3.6-3.7c-1.7,0-3.4,1.2-3.4,3.7C131.5,452.4,133.3,453.6,135.1,453.6z"/>
	<path class="st2" d="M152.6,455.7v-6.8c0-1.8-1.2-2.9-2.7-2.9c-1.6,0-2.9,1.3-2.9,3.1v6.6h-2.7v-8.3c0-1.4,0-1.7-1.2-1.6V444
		c1.7-0.3,3.6-0.4,3.6,1.8c0.6-1.5,2.4-2,4-2c3.2,0,4.6,2.1,4.6,5v6.8h-2.7V455.7z"/>
	<path class="st2" d="M158.4,446.5h8.1v2.3h-8.1V446.5z"/>
	<path class="st2" d="M176.8,453.5v2.3h-8.2v-2.3h2.7v-12.4h-2.5v-2.2h7.7v2.2H174v12.4H176.8z"/>
	<path class="st2" d="M187.8,455.7v-6.8c0-1.8-1.2-2.9-2.7-2.9c-1.6,0-2.9,1.3-2.9,3.1v6.6h-2.7v-8.3c0-1.4,0-1.7-1.2-1.6V444
		c1.7-0.3,3.6-0.4,3.6,1.8c0.6-1.5,2.4-2,4-2c3.2,0,4.6,2.1,4.6,5v6.8h-2.7V455.7z"/>
	<path class="st2" d="M202.3,453.6c-0.8,1.7-2.1,2.4-3.9,2.4c-3.5,0.1-5.4-2.8-5.4-6.1c0-3.6,2.5-6,5.5-6c1,0,2.2,0.3,3.2,0.9V438
		h2.6v14.1c0,1.3-0.1,1.8,1.2,1.8v1.8c-1.8,0.3-3.4,0.1-3.4-1.8v-0.3H202.3z M201.8,447.1c-0.9-0.7-2-0.9-2.9-0.9
		c-1.8,0-3.3,1.3-3.3,3.7c0,2,1,3.7,3.2,3.7c1.8,0,3-1.5,3-3.2V447.1z"/>
	<path class="st2" d="M209.6,438.9c0.8,0,1.6,0.5,1.6,1.5s-0.8,1.5-1.5,1.6c-0.8,0-1.6-0.5-1.6-1.6
		C208.1,439.4,208.8,438.9,209.6,438.9z M210.9,455.7h-2.6v-11.6h2.6V455.7z"/>
	<path class="st2" d="M222.5,455.1c-1.2,0.7-2.4,0.8-3.5,0.8c-3,0-5.3-2.1-5.3-5.9c0-4.2,2.9-6.2,6.5-6.1c1.7,0,3.3,0.4,4.8,1.1
		v11.5c0,4-2.6,5.8-5.6,5.8c-1.6,0-3.3-0.4-4.9-1.3l0.4-2.1c1.5,0.7,3.1,1.2,4.4,1.2c1.8,0,3.1-0.9,3.1-3.6v-1.4H222.5z
		 M222.4,446.5c-0.8-0.3-1.6-0.4-2.5-0.4c-2.2,0-3.6,1.3-3.6,3.9c0,2.5,1.4,3.6,3.2,3.7c0.9,0,1.9-0.1,2.9-0.8L222.4,446.5
		L222.4,446.5z"/>
	<path class="st2" d="M238.8,450.6h-8.6c0,2.1,1.7,3.1,3.8,3.1c1.5,0,2.9-0.1,4.2-0.7l0.3,2c-1.4,0.6-2.9,1-4.4,1
		c-3.8,0.1-6.7-2.3-6.5-6.3c0.1-3.9,2.9-5.8,6-5.8C237.8,443.9,239.6,446.7,238.8,450.6z M230.2,448.8h6.5c0-2-1.4-2.9-3-2.9
		C231.9,445.9,230.6,447,230.2,448.8z"/>
	<path class="st2" d="M250.4,455.7v-6.8c0-1.8-1.2-2.9-2.7-2.9c-1.6,0-2.9,1.3-2.9,3.1v6.6h-2.7v-8.3c0-1.4,0-1.7-1.2-1.6V444
		c1.7-0.3,3.6-0.4,3.6,1.8c0.7-1.5,2.4-2,4-2c3.2,0,4.6,2.1,4.6,5v6.8h-2.7V455.7z"/>
	<path class="st2" d="M261.7,455.9c-3.1,0-6.1-2-6.1-6.1c0-4,3-6,6-6c3.2,0,6.3,1.9,6.3,6S264.8,455.9,261.7,455.9z M261.8,453.6
		c1.7,0,3.5-1.3,3.5-3.8s-1.8-3.7-3.6-3.7c-1.7,0-3.4,1.2-3.4,3.7C258.2,452.4,260,453.6,261.8,453.6z"/>
	<path class="st2" d="M281.2,444.1v8.3c0,1.4,0.1,1.8,1.2,1.7v1.7c-1.5,0.3-3.6,0.6-3.6-1.9c-0.8,1.6-2.4,2.1-4,2.1
		c-3.2,0-4.3-2.2-4.3-5.1v-6.7h2.7v6.7c0,1.9,1,3,2.5,3c1.7,0,2.9-1.2,2.9-3.1v-6.7H281.2z"/>
	<path class="st2" d="M286.8,452.3c0.1,1.2,1.4,1.8,2.7,1.8c1.3,0,2.7-0.4,2.8-1.8c0-1.1-1.1-1.4-2.6-1.6c-2.4-0.3-5.1-0.6-5.1-3.2
		c0-2.5,2.4-3.6,5-3.6c2.7,0,5,1.2,4.9,3.5H292c0-1.2-1.4-1.5-2.6-1.5s-2.5,0.6-2.4,1.6c0,1,1,1.2,2.8,1.4c2.4,0.3,4.8,0.7,4.8,3.5
		c0,2.6-2.5,3.7-5.1,3.7s-5.1-0.8-5.3-3.7L286.8,452.3L286.8,452.3z"/>
	<path class="st2" d="M305.5,452.2l-1.6,3.5h-3v-0.4l7.8-16.7h1.3l7.8,16.7v0.4h-2.9l-1.7-3.5H305.5z M306.4,449.9h5.9l-2.9-6.8
		L306.4,449.9z"/>
	<path class="st2" d="M330.2,444.1v8.3c0,1.4,0.1,1.8,1.2,1.7v1.7c-1.5,0.3-3.6,0.6-3.6-1.9c-0.8,1.6-2.4,2.1-4,2.1
		c-3.2,0-4.3-2.2-4.3-5.1v-6.7h2.7v6.7c0,1.9,1,3,2.5,3c1.7,0,2.9-1.2,2.9-3.1v-6.7H330.2z"/>
	<path class="st2" d="M335.8,452.3c0.1,1.2,1.4,1.8,2.7,1.8c1.3,0,2.7-0.4,2.8-1.8c0-1.1-1.1-1.4-2.6-1.6c-2.4-0.3-5.1-0.6-5.1-3.2
		c0-2.5,2.4-3.6,5-3.6c2.7,0,5,1.2,5,3.5H341c0-1.2-1.4-1.5-2.6-1.5s-2.5,0.6-2.4,1.6c0,1,1,1.2,2.8,1.4c2.4,0.3,4.8,0.7,4.8,3.5
		c0,2.6-2.5,3.7-5.1,3.7s-5.1-0.8-5.3-3.7L335.8,452.3L335.8,452.3z"/>
	<path class="st2" d="M350,444.1h4v1.9h-4v5.1c0,2,0.8,2.7,2.1,2.8c0.6,0,1.4-0.1,2.2-0.4l0.3,2c-1,0.3-2,0.5-2.9,0.5
		c-2.5,0-4.2-1.4-4.2-4.8V446l-2.4-0.2v-1.7h2.4l0.3-3.6h2.3L350,444.1L350,444.1z"/>
	<path class="st2" d="M363,443.9c1,0,1.9,0.3,2.7,0.8L365,447c-0.7-0.5-1.5-0.7-2.3-0.7c-1.6,0-3,0.9-3,2.8v6.7h-2.6v-8.4
		c0-1,0-1.6-1.3-1.5v-1.8c1.7-0.4,3.6-0.1,3.7,1.8C360,444.5,361.6,443.9,363,443.9z"/>
	<path class="st2" d="M370.7,455.9c-2.8,0-4.2-1.7-4.2-3.5c0-2.2,1.5-3.9,4.5-3.9c1.1,0,2.4,0.2,3.5,0.8v-1.4c0-2.9-5.2-2-6.7-1.3
		l-0.4-1.9c1.2-0.6,2.8-0.8,4.3-0.8c2.8,0,5.3,0.9,5.3,4.1v4.6c0,1.1,0,1.7,1.2,1.6v1.6c-1.8,0.4-3.3,0.3-3.3-2
		C374.2,455.3,372.4,455.9,370.7,455.9z M371.4,450.4c-1.3,0-2.3,0.7-2.3,2c0,1,0.7,1.6,2.1,1.6s3-0.7,3.3-2.9
		C373.9,450.7,372.6,450.4,371.4,450.4z"/>
	<path class="st2" d="M383.2,438v13.5c0,1.6,0.4,2.3,1.6,2.3c0.3,0,0.5,0,0.9-0.1l0.1,2c-0.7,0.1-1.3,0.2-1.8,0.2
		c-2.3,0-3.4-1.2-3.4-4.4V438H383.2z"/>
	<path class="st2" d="M389,438.9c0.8,0,1.6,0.5,1.6,1.5s-0.8,1.5-1.5,1.6c-0.8,0-1.6-0.5-1.6-1.6C387.4,439.4,388.2,438.9,389,438.9
		z M390.3,455.7h-2.6v-11.6h2.6V455.7z"/>
	<path class="st2" d="M397,455.9c-2.8,0-4.2-1.7-4.2-3.5c0-2.2,1.5-3.9,4.5-3.9c1.1,0,2.4,0.2,3.5,0.8v-1.4c0-2.9-5.2-2-6.7-1.3
		l-0.4-1.9c1.2-0.6,2.8-0.8,4.3-0.8c2.8,0,5.3,0.9,5.3,4.1v4.6c0,1.1,0,1.7,1.2,1.6v1.6c-1.8,0.4-3.3,0.3-3.3-2
		C400.5,455.3,398.7,455.9,397,455.9z M397.7,450.4c-1.3,0-2.3,0.7-2.3,2c0,1,0.6,1.6,2.1,1.6c1.4,0,3-0.7,3.3-2.9
		C400.3,450.7,398.9,450.4,397.7,450.4z"/>
	<path class="st2" d="M415.7,455.7v-6.8c0-1.8-1.2-2.9-2.7-2.9c-1.6,0-2.9,1.3-2.9,3.1v6.6h-2.7v-8.3c0-1.4,0-1.7-1.2-1.6V444
		c1.7-0.3,3.6-0.4,3.6,1.8c0.6-1.5,2.4-2,4-2c3.2,0,4.6,2.1,4.6,5v6.8h-2.7V455.7z"/>
	<path class="st2" d="M423.4,452.3c0.1,1.2,1.4,1.8,2.7,1.8c1.3,0,2.7-0.4,2.8-1.8c0-1.1-1.1-1.4-2.6-1.6c-2.4-0.3-5.1-0.6-5.1-3.2
		c0-2.5,2.4-3.6,5-3.6c2.7,0,5,1.2,4.9,3.5h-2.3c0-1.2-1.4-1.5-2.6-1.5s-2.5,0.6-2.4,1.6c0,1,1,1.2,2.8,1.4c2.4,0.3,4.8,0.7,4.8,3.5
		c0,2.6-2.5,3.7-5.1,3.7s-5.1-0.8-5.3-3.7L423.4,452.3L423.4,452.3z"/>
	<g>
		<path class="st1" d="M450,171.3c0,8,6.3,14.4,14.2,14.4c7.9,0,14.3-6.2,14.4-14c0.1-8-6.2-14.4-14.1-14.5
			C456.5,157.1,450,163.4,450,171.3 M480.4,235.1c1.9,0,3.7,0,5.5,0c4.7-0.1,6.8-2.7,5.9-7.3c-2.1-9.6-4.1-19.3-6.2-28.9
			c-0.9-4.1-4.3-7.2-8.6-7.2c-8.4-0.1-16.8-0.1-25.2,0c-4.1,0.1-7.7,3.1-8.5,7c-2.2,9.8-4.3,19.7-6.4,29.6c-0.9,4,1.3,6.7,5.5,6.8
			c1.8,0,3.5,0,5.4,0c0.3,4,0.7,7.8,1,11.6c1,11.9,1.9,23.8,2.8,35.7c0.3,4.1,3.3,6.8,7.4,6.8c3.4,0,6.8,0,10.2,0
			c4.1,0,7.1-2.7,7.4-6.8c0.7-8,1.3-16.1,1.9-24.1C479.1,250.6,479.7,242.9,480.4,235.1"/>
		<path class="st1" d="M480.4,235.1c-0.6,7.9-3.1,39.3-3.8,47.3c-0.4,4.2-3.3,6.8-7.4,6.8c-3.4,0-6.8,0-10.2,0
			c-4.2,0-7.1-2.7-7.4-6.8c-1-11.9-3.5-43.3-3.8-47.3c-1.9,0-3.6,0-5.4,0c-4.1-0.1-6.3-2.8-5.5-6.8c2.1-9.9,4.2-19.7,6.4-29.6
			c0.9-4,4.4-7,8.5-7c8.4-0.1,16.8-0.1,25.2,0c4.3,0.1,7.7,3.1,8.6,7.2c2.1,9.6,4.2,19.2,6.2,28.9c1,4.6-1.2,7.2-5.9,7.3
			C484,235.1,482.3,235.1,480.4,235.1"/>
		<path class="st1" d="M450,171.3c0-7.9,6.5-14.2,14.5-14.1c7.9,0.1,14.1,6.5,14.1,14.5c-0.1,7.8-6.5,14-14.4,14
			C456.3,185.7,450,179.3,450,171.3"/>
		<path class="st1" d="M516.3,171.3c0,8,6.3,14.4,14.2,14.4s14.3-6.2,14.4-14c0.1-8-6.2-14.4-14.1-14.5
			C522.7,157.1,516.3,163.4,516.3,171.3 M546.6,235.1c1.9,0,3.7,0,5.5,0c4.7-0.1,6.8-2.7,5.9-7.3c-2.1-9.6-4.1-19.3-6.2-28.9
			c-0.9-4.1-4.3-7.2-8.6-7.2c-8.4-0.1-16.8-0.1-25.2,0c-4.1,0.1-7.7,3.1-8.5,7c-2.2,9.8-4.3,19.7-6.4,29.6c-0.9,4,1.3,6.7,5.5,6.8
			c1.8,0,3.5,0,5.4,0c0.3,4,0.7,7.8,1,11.6c1,11.9,1.9,23.8,2.8,35.7c0.3,4.1,3.3,6.8,7.4,6.8c3.4,0,6.8,0,10.2,0
			c4.1,0,7.1-2.7,7.4-6.8c0.7-8,1.3-16.1,1.9-24.1C545.4,250.6,546,242.9,546.6,235.1"/>
		<path class="st1" d="M546.6,235.1c-0.6,7.9-3.1,39.3-3.8,47.3c-0.4,4.2-3.3,6.8-7.4,6.8c-3.4,0-6.8,0-10.2,0
			c-4.2,0-7.1-2.7-7.4-6.8c-1-11.9-3.5-43.3-3.8-47.3c-1.9,0-3.6,0-5.4,0c-4.1-0.1-6.3-2.8-5.5-6.8c2.1-9.9,4.2-19.7,6.4-29.6
			c0.9-4,4.4-7,8.5-7c8.4-0.1,16.8-0.1,25.2,0c4.3,0.1,7.7,3.1,8.6,7.2c2.1,9.6,4.2,19.2,6.2,28.9c1,4.6-1.2,7.2-5.9,7.3
			C550.3,235.1,548.6,235.1,546.6,235.1"/>
		<path class="st1" d="M516.3,171.3c0-7.9,6.5-14.2,14.5-14.1c7.9,0.1,14.1,6.5,14.1,14.5c-0.1,7.8-6.5,14-14.4,14
			C522.5,185.7,516.2,179.3,516.3,171.3"/>
		<path class="st1" d="M452.1,308.1c0,8,6.3,14.4,14.2,14.4c7.9,0,14.3-6.2,14.4-14c0.1-8-6.2-14.4-14.1-14.5
			C458.6,293.9,452.1,300.1,452.1,308.1 M482.5,371.8c1.9,0,3.7,0,5.5,0c4.7-0.1,6.8-2.7,5.9-7.3c-2.1-9.6-4.1-19.3-6.2-28.9
			c-0.9-4.1-4.3-7.2-8.6-7.2c-8.4-0.1-16.8-0.1-25.2,0c-4.1,0.1-7.7,3.1-8.5,7c-2.2,9.8-4.3,19.7-6.4,29.6c-0.9,4,1.3,6.7,5.5,6.8
			c1.8,0,3.5,0,5.4,0c0.3,4,0.7,7.8,1,11.6c1,11.9,1.9,23.8,2.8,35.7c0.3,4.1,3.3,6.8,7.4,6.8c3.4,0,6.8,0,10.2,0
			c4.1,0,7.1-2.7,7.4-6.8c0.7-8,1.3-16.1,1.9-24.1C481.2,387.4,481.8,379.7,482.5,371.8"/>
		<path class="st1" d="M482.5,371.8c-0.6,7.9-3.1,39.3-3.8,47.3c-0.4,4.2-3.3,6.8-7.4,6.8c-3.4,0-6.8,0-10.2,0
			c-4.2,0-7.1-2.7-7.4-6.8c-1-11.9-3.5-43.3-3.8-47.3c-1.9,0-3.6,0-5.4,0c-4.1-0.1-6.3-2.8-5.5-6.8c2.1-9.9,4.2-19.7,6.4-29.6
			c0.9-4,4.4-7,8.5-7c8.4-0.1,16.8-0.1,25.2,0c4.3,0.1,7.7,3.1,8.6,7.2c2.1,9.6,4.2,19.2,6.2,28.9c1,4.6-1.2,7.2-5.9,7.3
			C486.2,371.9,484.4,371.8,482.5,371.8"/>
		<path class="st1" d="M452.1,308.1c0-7.9,6.5-14.2,14.5-14.1c7.9,0.1,14.1,6.5,14.1,14.5c-0.1,7.8-6.5,14-14.4,14
			C458.4,322.5,452.1,316.1,452.1,308.1"/>
		<path class="st2" d="M518.4,308.1c0,8,6.3,14.4,14.2,14.4s14.3-6.2,14.4-14c0.1-8-6.2-14.4-14.1-14.5
			C524.8,293.9,518.4,300.1,518.4,308.1 M548.8,371.8c1.9,0,3.7,0,5.5,0c4.7-0.1,6.8-2.7,5.9-7.3c-2.1-9.6-4.1-19.3-6.2-28.9
			c-0.9-4.1-4.3-7.2-8.6-7.2c-8.4-0.1-16.8-0.1-25.2,0c-4.1,0.1-7.7,3.1-8.5,7c-2.2,9.8-4.3,19.7-6.4,29.6c-0.9,4,1.3,6.7,5.5,6.8
			c1.8,0,3.5,0,5.4,0c0.3,4,0.7,7.8,1,11.6c1,11.9,1.9,23.8,2.8,35.7c0.3,4.1,3.3,6.8,7.4,6.8c3.4,0,6.8,0,10.2,0
			c4.1,0,7.1-2.7,7.4-6.8c0.7-8,1.3-16.1,1.9-24.1C547.5,387.4,548.1,379.7,548.8,371.8"/>
		<path class="st2" d="M548.8,371.8c-0.6,7.9-3.1,39.3-3.8,47.3c-0.4,4.2-3.3,6.8-7.4,6.8c-3.4,0-6.8,0-10.2,0
			c-4.2,0-7.1-2.7-7.4-6.8c-1-11.9-3.5-43.3-3.8-47.3c-1.9,0-3.6,0-5.4,0c-4.1-0.1-6.3-2.8-5.5-6.8c2.1-9.9,4.2-19.7,6.4-29.6
			c0.9-4,4.4-7,8.5-7c8.4-0.1,16.8-0.1,25.2,0c4.3,0.1,7.7,3.1,8.6,7.2c2.1,9.6,4.2,19.2,6.2,28.9c1,4.6-1.2,7.2-5.9,7.3
			C552.4,371.9,550.7,371.8,548.8,371.8"/>
		<path class="st2" d="M518.4,308.1c0-7.9,6.5-14.2,14.5-14.1c7.9,0.1,14.1,6.5,14.1,14.5c-0.1,7.8-6.5,14-14.4,14
			C524.7,322.5,518.4,316.1,518.4,308.1"/>
	</g>
</g>
</svg>
